{"count":106,"next":"http://127.0.0.1:8000/api/summary/subjects/?format=json&page=2","previous":null,"results":[{"id":159,"mark":4.177459426331883,"terminal_mark":4.295180722891566,"diff":0.12865474002407867,"year":2017,"subject":{"id":514,"name":"Рус. язык","type":"Русский язык и литература","dnevnik_id":3000000000000001}},{"id":160,"mark":4.229508214724229,"terminal_mark":4.383233532934132,"diff":0.16036478114793776,"year":2018,"subject":{"id":514,"name":"Рус. язык","type":"Русский язык и литература","dnevnik_id":3000000000000001}},{"id":161,"mark":4.138705261521265,"terminal_mark":null,"diff":null,"year":2019,"subject":{"id":514,"name":"Рус. язык","type":"Русский язык и литература","dnevnik_id":3000000000000001}},{"id":162,"mark":4.866674707859973,"terminal_mark":4.984894259818731,"diff":0.12187392956356123,"year":2017,"subject":{"id":515,"name":"Физкультура","type":"Неизвестно","dnevnik_id":3000000000000002}},{"id":163,"mark":4.875532908823641,"terminal_mark":4.970059880239521,"diff":0.09664959604476843,"year":2018,"subject":{"id":515,"name":"Физкультура","type":"Неизвестно","dnevnik_id":3000000000000002}},{"id":164,"mark":4.920835640457736,"terminal_mark":null,"diff":null,"year":2019,"subject":{"id":515,"name":"Физкультура","type":"Неизвестно","dnevnik_id":3000000000000002}},{"id":165,"mark":4.811224300236434,"terminal_mark":4.942771084337349,"diff":0.1356021702030365,"year":2017,"subject":{"id":516,"name":"Кубановедение","type":"Прочее","dnevnik_id":3000000000000003}},{"id":166,"mark":4.810555264151044,"terminal_mark":4.912912912912913,"diff":0.10099987027988452,"year":2018,"subject":{"id":516,"name":"Кубановедение","type":"Прочее","dnevnik_id":3000000000000003}},{"id":167,"mark":4.781151313963811,"terminal_mark":null,"diff":null,"year":2019,"subject":{"id":516,"name":"Кубановедение","type":"Прочее","dnevnik_id":3000000000000003}},{"id":168,"mark":4.392668698571058,"terminal_mark":4.5,"diff":0.09844881595634847,"year":2017,"subject":{"id":517,"name":"Математика","type":"Математика","dnevnik_id":3000000000000004}},{"id":169,"mark":4.3863757569171025,"terminal_mark":4.492857142857143,"diff":0.1332859871190769,"year":2018,"subject":{"id":517,"name":"Математика","type":"Математика","dnevnik_id":3000000000000004}},{"id":170,"mark":4.303716829001123,"terminal_mark":null,"diff":null,"year":2019,"subject":{"id":517,"name":"Математика","type":"Математика","dnevnik_id":3000000000000004}},{"id":171,"mark":4.7852549139660185,"terminal_mark":4.9395770392749245,"diff":0.15465375260190056,"year":2017,"subject":{"id":518,"name":"Шахматы","type":"Прочее","dnevnik_id":3000000000000005}},{"id":172,"mark":4.924478904473048,"terminal_mark":4.964285714285714,"diff":0.0366973186081128,"year":2018,"subject":{"id":518,"name":"Шахматы","type":"Прочее","dnevnik_id":3000000000000005}},{"id":173,"mark":4.9855072463768115,"terminal_mark":null,"diff":null,"year":2019,"subject":{"id":518,"name":"Шахматы","type":"Прочее","dnevnik_id":3000000000000005}},{"id":174,"mark":4.870593214428429,"terminal_mark":4.973684210526316,"diff":0.10807982161677106,"year":2017,"subject":{"id":519,"name":"ИЗО","type":"Искусство","dnevnik_id":3000000000000006}},{"id":175,"mark":4.926460351233617,"terminal_mark":4.978947368421053,"diff":0.0461404834772545,"year":2018,"subject":{"id":519,"name":"ИЗО","type":"Искусство","dnevnik_id":3000000000000006}},{"id":176,"mark":4.853682525625757,"terminal_mark":null,"diff":null,"year":2019,"subject":{"id":519,"name":"ИЗО","type":"Искусство","dnevnik_id":3000000000000006}},{"id":177,"mark":4.973824518883417,"terminal_mark":4.985074626865671,"diff":0.01025307341011428,"year":2017,"subject":{"id":520,"name":"Музыка","type":"Искусство","dnevnik_id":3000000000000007}},{"id":178,"mark":4.970404008305694,"terminal_mark":5.0,"diff":0.029907528448983464,"year":2018,"subject":{"id":520,"name":"Музыка","type":"Искусство","dnevnik_id":3000000000000007}},{"id":179,"mark":4.997267759562842,"terminal_mark":null,"diff":null,"year":2019,"subject":{"id":520,"name":"Музыка","type":"Искусство","dnevnik_id":3000000000000007}},{"id":180,"mark":4.787794998803867,"terminal_mark":4.907894736842105,"diff":0.12448429494584373,"year":2017,"subject":{"id":521,"name":"Окружающий мир","type":"Прочее","dnevnik_id":3000000000000008}},{"id":181,"mark":4.64837897721214,"terminal_mark":4.821052631578947,"diff":0.1708656758991836,"year":2018,"subject":{"id":521,"name":"Окружающий мир","type":"Прочее","dnevnik_id":3000000000000008}},{"id":182,"mark":4.649158178777743,"terminal_mark":null,"diff":null,"year":2019,"subject":{"id":521,"name":"Окружающий мир","type":"Прочее","dnevnik_id":3000000000000008}},{"id":183,"mark":4.856634249318616,"terminal_mark":4.9672897196261685,"diff":0.11443778377750845,"year":2018,"subject":{"id":522,"name":"Технология","type":"Технология","dnevnik_id":3000000000000009}},{"id":184,"mark":4.756192265883895,"terminal_mark":null,"diff":null,"year":2019,"subject":{"id":522,"name":"Технология","type":"Технология","dnevnik_id":3000000000000009}},{"id":185,"mark":4.65880498041485,"terminal_mark":4.790697674418604,"diff":0.1345274068134885,"year":2018,"subject":{"id":523,"name":"Чтение","type":"Русский язык и литература","dnevnik_id":3000000000000010}},{"id":186,"mark":4.639285541808654,"terminal_mark":null,"diff":null,"year":2019,"subject":{"id":523,"name":"Чтение","type":"Русский язык и литература","dnevnik_id":3000000000000010}},{"id":187,"mark":4.4249926910254205,"terminal_mark":4.537764350453172,"diff":0.12278872782229419,"year":2017,"subject":{"id":524,"name":"Англ. язык","type":"Иностранный язык","dnevnik_id":3000000000000011}},{"id":188,"mark":4.553712185955651,"terminal_mark":4.658682634730539,"diff":0.10690670002456273,"year":2018,"subject":{"id":524,"name":"Англ. язык","type":"Иностранный язык","dnevnik_id":3000000000000011}},{"id":189,"mark":4.456528665691025,"terminal_mark":null,"diff":null,"year":2019,"subject":{"id":524,"name":"Англ. язык","type":"Иностранный язык","dnevnik_id":3000000000000011}},{"id":190,"mark":4.954120879120879,"terminal_mark":5.0,"diff":0.03149350649350646,"year":2017,"subject":{"id":525,"name":"ОРКСЭ","type":"Прочее","dnevnik_id":3000000000000012}},{"id":191,"mark":5.0,"terminal_mark":null,"diff":null,"year":2019,"subject":{"id":525,"name":"ОРКСЭ","type":"Прочее","dnevnik_id":3000000000000012}},{"id":192,"mark":4.401261484174815,"terminal_mark":4.5703125,"diff":0.1671524885915571,"year":2017,"subject":{"id":526,"name":"Биология","type":"Естествознание","dnevnik_id":3000000000000013}},{"id":193,"mark":4.400750026818943,"terminal_mark":4.565400843881856,"diff":0.17581339104958502,"year":2018,"subject":{"id":526,"name":"Биология","type":"Естествознание","dnevnik_id":3000000000000013}},{"id":194,"mark":4.353716052499639,"terminal_mark":null,"diff":null,"year":2019,"subject":{"id":526,"name":"Биология","type":"Естествознание","dnevnik_id":3000000000000013}},{"id":195,"mark":4.620286839297979,"terminal_mark":4.784313725490196,"diff":0.16619936462282447,"year":2017,"subject":{"id":527,"name":"География","type":"Социальные науки","dnevnik_id":3000000000000014}},{"id":196,"mark":4.607076778502306,"terminal_mark":4.73109243697479,"diff":0.13154755814133867,"year":2018,"subject":{"id":527,"name":"География","type":"Социальные науки","dnevnik_id":3000000000000014}},{"id":197,"mark":4.489632955065052,"terminal_mark":null,"diff":null,"year":2019,"subject":{"id":527,"name":"География","type":"Социальные науки","dnevnik_id":3000000000000014}},{"id":198,"mark":4.681984259759777,"terminal_mark":4.790322580645161,"diff":0.1026312818301982,"year":2017,"subject":{"id":528,"name":"Информатика","type":"Технология","dnevnik_id":3000000000000015}},{"id":199,"mark":4.851868755130788,"terminal_mark":4.962962962962963,"diff":0.11383737903345742,"year":2018,"subject":{"id":528,"name":"Информатика","type":"Технология","dnevnik_id":3000000000000015}},{"id":200,"mark":4.713275787072704,"terminal_mark":null,"diff":null,"year":2019,"subject":{"id":528,"name":"Информатика","type":"Технология","dnevnik_id":3000000000000015}},{"id":201,"mark":4.4303712682712835,"terminal_mark":4.60546875,"diff":0.17469129868346897,"year":2017,"subject":{"id":529,"name":"История","type":"Социальные науки","dnevnik_id":3000000000000016}},{"id":202,"mark":4.498081804645696,"terminal_mark":4.684873949579832,"diff":0.18795843180588628,"year":2018,"subject":{"id":529,"name":"История","type":"Социальные науки","dnevnik_id":3000000000000016}},{"id":203,"mark":4.433486260754441,"terminal_mark":null,"diff":null,"year":2019,"subject":{"id":529,"name":"История","type":"Социальные науки","dnevnik_id":3000000000000016}},{"id":204,"mark":4.589939559973634,"terminal_mark":4.70703125,"diff":0.12796250478216847,"year":2017,"subject":{"id":530,"name":"Обществознание","type":"Социальные науки","dnevnik_id":3000000000000017}},{"id":205,"mark":4.602377729858552,"terminal_mark":4.794979079497908,"diff":0.1940161381153759,"year":2018,"subject":{"id":530,"name":"Обществознание","type":"Социальные науки","dnevnik_id":3000000000000017}},{"id":206,"mark":4.489390285069298,"terminal_mark":null,"diff":null,"year":2019,"subject":{"id":530,"name":"Обществознание","type":"Социальные науки","dnevnik_id":3000000000000017}},{"id":207,"mark":4.391160839029569,"terminal_mark":4.5546875,"diff":0.16255735260555707,"year":2017,"subject":{"id":531,"name":"Литература","type":"Русский язык и литература","dnevnik_id":3000000000000018}},{"id":208,"mark":4.4603772459321585,"terminal_mark":4.554166666666666,"diff":0.10342241221420675,"year":2018,"subject":{"id":531,"name":"Литература","type":"Русский язык и литература","dnevnik_id":3000000000000018}},{"id":209,"mark":4.416237078906061,"terminal_mark":null,"diff":null,"year":2019,"subject":{"id":531,"name":"Литература","type":"Русский язык и литература","dnevnik_id":3000000000000018}},{"id":210,"mark":4.018002799362606,"terminal_mark":4.182242990654205,"diff":0.1584542610973611,"year":2017,"subject":{"id":532,"name":"Алгебра","type":"Математика","dnevnik_id":3000000000000019}},{"id":211,"mark":4.05422826626831,"terminal_mark":4.22680412371134,"diff":0.1733443106127981,"year":2018,"subject":{"id":532,"name":"Алгебра","type":"Математика","dnevnik_id":3000000000000019}},{"id":212,"mark":4.022523261018762,"terminal_mark":null,"diff":null,"year":2019,"subject":{"id":532,"name":"Алгебра","type":"Математика","dnevnik_id":3000000000000019}},{"id":213,"mark":3.963799691865768,"terminal_mark":4.177570093457944,"diff":0.20732625052406,"year":2017,"subject":{"id":533,"name":"Геометрия","type":"Математика","dnevnik_id":3000000000000020}},{"id":214,"mark":4.032922850856209,"terminal_mark":4.22680412371134,"diff":0.19747466880694126,"year":2018,"subject":{"id":533,"name":"Геометрия","type":"Математика","dnevnik_id":3000000000000020}},{"id":215,"mark":3.9286718466718455,"terminal_mark":null,"diff":null,"year":2019,"subject":{"id":533,"name":"Геометрия","type":"Математика","dnevnik_id":3000000000000020}},{"id":216,"mark":3.966098233738549,"terminal_mark":4.144859813084112,"diff":0.18330299747986767,"year":2017,"subject":{"id":534,"name":"Физика","type":"Естествознание","dnevnik_id":3000000000000021}},{"id":217,"mark":4.118863562517839,"terminal_mark":4.302564102564102,"diff":0.1811382718651895,"year":2018,"subject":{"id":534,"name":"Физика","type":"Естествознание","dnevnik_id":3000000000000021}},{"id":218,"mark":3.7853558933146467,"terminal_mark":null,"diff":null,"year":2019,"subject":{"id":534,"name":"Физика","type":"Естествознание","dnevnik_id":3000000000000021}},{"id":219,"mark":4.804863246918199,"terminal_mark":4.952830188679245,"diff":0.14771195359832237,"year":2017,"subject":{"id":535,"name":"ОБЖ","type":"Физическая культура","dnevnik_id":3000000000000022}},{"id":220,"mark":4.776702210947059,"terminal_mark":4.92948717948718,"diff":0.15237830209028708,"year":2018,"subject":{"id":535,"name":"ОБЖ","type":"Физическая культура","dnevnik_id":3000000000000022}},{"id":221,"mark":4.53448275862069,"terminal_mark":null,"diff":null,"year":2019,"subject":{"id":535,"name":"ОБЖ","type":"Физическая культура","dnevnik_id":3000000000000022}},{"id":222,"mark":4.1330740206425745,"terminal_mark":4.351955307262569,"diff":0.2258480647433093,"year":2017,"subject":{"id":536,"name":"Химия","type":"Естествознание","dnevnik_id":3000000000000023}},{"id":223,"mark":4.15565885300149,"terminal_mark":4.348101265822785,"diff":0.18525796392796887,"year":2018,"subject":{"id":536,"name":"Химия","type":"Естествознание","dnevnik_id":3000000000000023}},{"id":224,"mark":4.242040659642702,"terminal_mark":null,"diff":null,"year":2019,"subject":{"id":536,"name":"Химия","type":"Естествознание","dnevnik_id":3000000000000023}},{"id":225,"mark":4.07,"terminal_mark":null,"diff":null,"year":2019,"subject":{"id":537,"name":"Орфогр. и пункт.","type":"Русский язык и литература","dnevnik_id":3000000000000024}},{"id":226,"mark":4.664285714285715,"terminal_mark":null,"diff":null,"year":2017,"subject":{"id":539,"name":"Проектн.деят.","type":"Прочее","dnevnik_id":3000000000000026}},{"id":227,"mark":4.820476190476191,"terminal_mark":null,"diff":null,"year":2018,"subject":{"id":539,"name":"Проектн.деят.","type":"Прочее","dnevnik_id":3000000000000026}},{"id":228,"mark":4.684210526315789,"terminal_mark":null,"diff":null,"year":2019,"subject":{"id":539,"name":"Проектн.деят.","type":"Прочее","dnevnik_id":3000000000000026}},{"id":229,"mark":4.592278647278646,"terminal_mark":4.75,"diff":0.1807698551448552,"year":2017,"subject":{"id":540,"name":"Экономика","type":"Социальные науки","dnevnik_id":3000000000000027}},{"id":230,"mark":4.4816681629181625,"terminal_mark":4.671232876712328,"diff":0.19666514991857453,"year":2018,"subject":{"id":540,"name":"Экономика","type":"Социальные науки","dnevnik_id":3000000000000027}},{"id":231,"mark":4.618238993710692,"terminal_mark":null,"diff":null,"year":2019,"subject":{"id":540,"name":"Экономика","type":"Социальные науки","dnevnik_id":3000000000000027}},{"id":232,"mark":4.331818181818182,"terminal_mark":null,"diff":null,"year":2017,"subject":{"id":541,"name":"Астрономия","type":"Естествознание","dnevnik_id":3000000000000028}},{"id":233,"mark":4.522525414660247,"terminal_mark":4.625,"diff":0.09025470653377636,"year":2018,"subject":{"id":541,"name":"Астрономия","type":"Естествознание","dnevnik_id":3000000000000028}},{"id":234,"mark":3.4916666666666663,"terminal_mark":null,"diff":null,"year":2019,"subject":{"id":541,"name":"Астрономия","type":"Естествознание","dnevnik_id":3000000000000028}},{"id":235,"mark":5.0,"terminal_mark":null,"diff":null,"year":2018,"subject":{"id":542,"name":"мет.реш.геом.зад.","type":"Математика","dnevnik_id":3000000000000029}},{"id":236,"mark":4.330555555555557,"terminal_mark":null,"diff":null,"year":2019,"subject":{"id":542,"name":"мет.реш.геом.зад.","type":"Математика","dnevnik_id":3000000000000029}},{"id":237,"mark":4.353571428571429,"terminal_mark":4.333333333333333,"diff":0.0515873015873016,"year":2018,"subject":{"id":543,"name":"Задачи по химии","type":"Естествознание","dnevnik_id":3000000000000030}},{"id":238,"mark":4.587092518020355,"terminal_mark":4.806451612903226,"diff":0.22223547062256735,"year":2017,"subject":{"id":546,"name":"Конст. право","type":"Социальные науки","dnevnik_id":3000000000000033}},{"id":239,"mark":4.4972988347988325,"terminal_mark":4.684931506849315,"diff":0.192235884359172,"year":2018,"subject":{"id":546,"name":"Конст. право","type":"Социальные науки","dnevnik_id":3000000000000033}},{"id":240,"mark":4.479674796747968,"terminal_mark":null,"diff":null,"year":2019,"subject":{"id":547,"name":"право","type":"Социальные науки","dnevnik_id":3000000000000034}},{"id":241,"mark":4.0,"terminal_mark":null,"diff":null,"year":2018,"subject":{"id":548,"name":"Физика задачи","type":"Естествознание","dnevnik_id":3000000000000035}},{"id":242,"mark":4.967978159538,"terminal_mark":5.0,"diff":0.02990548246253987,"year":2017,"subject":{"id":550,"name":"Технология нач","type":"Технология","dnevnik_id":3000000000000037}},{"id":243,"mark":4.685085893827445,"terminal_mark":4.75,"diff":0.08222038556166231,"year":2017,"subject":{"id":551,"name":"Литературное чтение","type":"Русский язык и литература","dnevnik_id":3000000000000038}},{"id":244,"mark":4.844798671897313,"terminal_mark":4.888888888888889,"diff":0.044090216991575955,"year":2018,"subject":{"id":551,"name":"Литературное чтение","type":"Русский язык и литература","dnevnik_id":3000000000000038}},{"id":245,"mark":4.686414565826331,"terminal_mark":null,"diff":null,"year":2017,"subject":{"id":552,"name":"Человек","type":"Социальные науки","dnevnik_id":3000000000000039}},{"id":246,"mark":4.917039734846322,"terminal_mark":4.962264150943396,"diff":0.03906059477439071,"year":2017,"subject":{"id":553,"name":"Искусство","type":"Искусство","dnevnik_id":3000000000000040}},{"id":247,"mark":4.8958753559300074,"terminal_mark":4.958677685950414,"diff":0.06459157445247113,"year":2018,"subject":{"id":553,"name":"Искусство","type":"Искусство","dnevnik_id":3000000000000040}},{"id":248,"mark":4.744346063478694,"terminal_mark":4.848341232227488,"diff":0.11490807389591198,"year":2017,"subject":{"id":554,"name":"ИКТ","type":"Технология","dnevnik_id":3000000000000041}},{"id":249,"mark":4.7509020385573955,"terminal_mark":4.877551020408164,"diff":0.13096270535695415,"year":2018,"subject":{"id":554,"name":"ИКТ","type":"Технология","dnevnik_id":3000000000000041}},{"id":250,"mark":5.0,"terminal_mark":null,"diff":null,"year":2018,"subject":{"id":555,"name":"Математика (Э)","type":"Элективы","dnevnik_id":3000000000000042}},{"id":251,"mark":5.0,"terminal_mark":null,"diff":null,"year":2018,"subject":{"id":556,"name":"Информатика (Э)","type":"Элективы","dnevnik_id":3000000000000043}},{"id":252,"mark":5.0,"terminal_mark":null,"diff":null,"year":2018,"subject":{"id":557,"name":"Физика (Э)","type":"Элективы","dnevnik_id":3000000000000044}},{"id":253,"mark":5.0,"terminal_mark":null,"diff":null,"year":2018,"subject":{"id":558,"name":"Англ.яз (Э)","type":"Элективы","dnevnik_id":3000000000000045}},{"id":254,"mark":4.5,"terminal_mark":null,"diff":null,"year":2018,"subject":{"id":560,"name":"Задачи по физике","type":"Естествознание","dnevnik_id":3000000000000047}},{"id":255,"mark":4.598294687768372,"terminal_mark":4.722222222222222,"diff":0.13698523698523696,"year":2017,"subject":{"id":561,"name":"Социология","type":"Социальные науки","dnevnik_id":3000000000000048}},{"id":256,"mark":4.265861092032967,"terminal_mark":4.5625,"diff":0.3062079049982276,"year":2018,"subject":{"id":561,"name":"Социология","type":"Социальные науки","dnevnik_id":3000000000000048}},{"id":257,"mark":4.269583021145521,"terminal_mark":4.645161290322581,"diff":0.3668820426884942,"year":2018,"subject":{"id":562,"name":"Политология (э)","type":"Социальные науки","dnevnik_id":3000000000000049}},{"id":258,"mark":4.5,"terminal_mark":null,"diff":null,"year":2017,"subject":{"id":563,"name":"Предпринимательство","type":"Социальные науки","dnevnik_id":3000000000000050}}]}